Calculate windows of the index of association for genlight objects. — win.ia • poppr
…
#> The following object is masked from ‘package:igraph’:
#> 
#>     crossing
#> The following object is masked from ‘package:magrittr’:
#> 
#>     extract
res_tidy <- res %>%
  data_frame(rd = ., chromosome = names(.)) %>% # create two column data frame
  separate(chromosome, into = c("chromosome", "position")) %>% # get the position info
  mutate(position = as.integer(position)) %>% # force position as integers
  mutate(chromosome = factor(chromosome, unique(chromosome))) # force order chromosomes
#> Warning: `data_frame()` is deprecated, use `tibble()`.
#> This warning is displayed once per session.
res_tidy
#> # A tibble: 100 x 3
#>          rd chromosome position
#>       <dbl> <fct>         <int>
#>  1 -0.0582  1               100
#>  2 -0.111   1               200
#>  3 -0.111   1               300
#>  4 -0.111   1               400
#>  5 -0.131   1               500
#>  6 -0.111   1               600
#>  7  0.0319  1               700
#>  8  0.00976 1               800
#>  9 -0.0957  1               900
#> 10  0.196   1              1000
#> # … with 90 more rows
…
